<?xml version="1.0" standalone="no"?>
<!DOCTYPE svg PUBLIC "-//W3C//DTD SVG 20010904//EN"
 "http://www.w3.org/TR/2001/REC-SVG-20010904/DTD/svg10.dtd">
<svg version="1.0" xmlns="http://www.w3.org/2000/svg"
 width="128.000000pt" height="128.000000pt" viewBox="0 0 128.000000 128.000000"
 preserveAspectRatio="xMidYMid meet">

<g transform="translate(0.000000,128.000000) scale(0.100000,-0.100000)"
fill="#000000" stroke="none">
<path d="M0 640 l0 -640 640 0 640 0 0 640 0 640 -640 0 -640 0 0 -640z m420
420 l0 -200 -200 0 -200 0 0 200 0 200 200 0 200 0 0 -200z m420 0 l0 -200
-200 0 -200 0 0 200 0 200 200 0 200 0 0 -200z m420 0 l0 -200 -200 0 -200 0
0 200 0 200 200 0 200 0 0 -200z m-840 -420 l0 -200 -200 0 -200 0 0 200 0
200 200 0 200 0 0 -200z m420 0 l0 -200 -200 0 -200 0 0 200 0 200 200 0 200
0 0 -200z m420 0 l0 -200 -200 0 -200 0 0 200 0 200 200 0 200 0 0 -200z
m-840 -420 l0 -200 -200 0 -200 0 0 200 0 200 200 0 200 0 0 -200z m420 0 l0
-200 -200 0 -200 0 0 200 0 200 200 0 200 0 0 -200z m420 0 l0 -200 -200 0
-200 0 0 200 0 200 200 0 200 0 0 -200z"/>
<path d="M480 1060 l0 -160 160 0 160 0 0 160 0 160 -160 0 -160 0 0 -160z"/>
<path d="M900 640 l0 -160 160 0 160 0 0 160 0 160 -160 0 -160 0 0 -160z"/>
<path d="M60 220 l0 -160 160 0 160 0 0 160 0 160 -160 0 -160 0 0 -160z"/>
<path d="M480 220 l0 -160 160 0 160 0 0 160 0 160 -160 0 -160 0 0 -160z"/>
<path d="M900 220 l0 -160 160 0 160 0 0 160 0 160 -160 0 -160 0 0 -160z"/>
</g>
</svg>
