<?xml version="1.0" standalone="no"?>
<!DOCTYPE svg PUBLIC "-//W3C//DTD SVG 20010904//EN"
 "http://www.w3.org/TR/2001/REC-SVG-20010904/DTD/svg10.dtd">
<svg version="1.0" xmlns="http://www.w3.org/2000/svg"
 width="35.000000pt" height="35.000000pt" viewBox="0 0 35.000000 35.000000"
 preserveAspectRatio="xMidYMid meet">

<g transform="translate(0.000000,35.000000) scale(0.100000,-0.100000)"
fill="#000000" stroke="none">
<path d="M142 338 c-7 -7 -12 -20 -12 -30 0 -25 -40 -64 -50 -49 -11 20 -27
-9 -28 -53 -1 -21 -4 -47 -7 -57 -4 -12 -1 -21 9 -25 11 -4 16 -19 16 -43 0
-68 49 -106 72 -56 10 22 8 27 -15 45 -22 17 -24 25 -17 49 4 16 12 37 17 46
8 14 11 14 26 -3 10 -11 15 -26 11 -36 -8 -21 -20 -20 -33 2 -9 15 -10 15 -11
-5 0 -12 7 -26 16 -31 9 -5 15 -12 15 -15 -1 -4 2 -6 5 -4 4 1 11 -14 18 -33
16 -51 45 -47 74 10 18 35 22 56 19 96 -4 41 -2 52 13 62 13 8 18 24 18 61 0
54 -8 66 -45 66 -16 1 -23 -5 -23 -17 0 -14 -8 -18 -32 -18 -30 -1 -31 -2 -15
-14 9 -7 17 -24 17 -37 0 -26 15 -16 23 16 3 13 5 9 6 -12 1 -28 -2 -33 -22
-33 -13 0 -28 5 -35 12 -15 15 -16 84 -2 93 6 3 10 10 10 16 0 13 -24 11 -38
-3z m72 -152 c-10 -8 -21 -11 -24 -8 -3 4 -9 10 -14 15 -5 4 6 7 24 7 32 0 33
-1 14 -14z m40 -24 c7 -12 -4 -52 -15 -52 -12 0 -31 39 -24 50 8 12 32 13 39
2z m-48 -37 c-3 -8 3 -20 12 -27 17 -13 27 -38 15 -38 -4 0 -17 10 -29 21 -19
18 -21 24 -11 40 14 23 21 25 13 4z"/>
</g>
</svg>
