<?xml version="1.0" standalone="no"?>
<!DOCTYPE svg PUBLIC "-//W3C//DTD SVG 20010904//EN"
 "http://www.w3.org/TR/2001/REC-SVG-20010904/DTD/svg10.dtd">
<svg version="1.0" xmlns="http://www.w3.org/2000/svg"
 width="512.000000pt" height="512.000000pt" viewBox="0 0 512.000000 512.000000"
 preserveAspectRatio="xMidYMid meet">

<g transform="translate(0.000000,512.000000) scale(0.100000,-0.100000)"
fill="#000000" stroke="none">
<path d="M0 2560 l0 -2560 2050 0 2050 0 0 255 0 255 -257 2 -258 3 -3 253 -2
252 -255 0 -255 0 0 -255 0 -255 -765 0 -765 0 0 255 0 255 -260 0 -260 0 0
-255 0 -255 -255 0 -255 0 2 512 3 513 513 3 512 2 -2 253 -3 252 -512 3 -513
2 0 1280 0 1280 515 0 515 0 0 255 0 255 -770 0 -770 0 0 -2560z"/>
<path d="M2050 4865 l0 -255 765 0 765 0 0 -770 0 -770 -510 0 -510 0 0 255 0
255 255 0 255 0 0 260 0 260 -1022 -2 -1023 -3 -3 -767 -2 -768 260 0 260 0 0
510 0 510 255 0 255 0 0 -510 0 -510 1025 0 1025 0 0 1025 0 1025 255 0 255 0
0 -1280 0 -1280 -1280 0 -1280 0 0 -515 0 -515 255 0 255 0 0 260 0 260 1023
-2 1022 -3 3 -767 2 -768 255 0 255 0 0 2560 0 2560 -1535 0 -1535 0 0 -255z"/>
</g>
</svg>
