<?xml version="1.0" standalone="no"?>
<!DOCTYPE svg PUBLIC "-//W3C//DTD SVG 20010904//EN"
 "http://www.w3.org/TR/2001/REC-SVG-20010904/DTD/svg10.dtd">
<svg version="1.0" xmlns="http://www.w3.org/2000/svg"
 width="512.000000pt" height="512.000000pt" viewBox="0 0 512.000000 512.000000"
 preserveAspectRatio="xMidYMid meet">

<g transform="translate(0.000000,512.000000) scale(0.100000,-0.100000)"
fill="#000000" stroke="none">
<path d="M1430 4518 c0 -591 -1 -604 -21 -633 -37 -55 -77 -140 -100 -215 -31
-97 -33 -298 -5 -400 40 -149 129 -282 231 -347 l45 -28 0 -167 0 -168 150 0
150 0 0 168 1 167 55 35 c142 90 232 274 241 496 8 179 -29 321 -116 448 l-31
45 0 300 0 301 1205 0 1205 0 0 -1960 0 -1960 -977 2 -978 3 -3 827 -2 828
-1200 0 -1200 0 0 -837 0 -838 90 -260 c99 -287 114 -312 187 -322 47 -6 104
17 126 50 8 12 55 142 106 289 l91 268 0 525 0 525 600 0 600 0 0 -830 0 -830
1580 0 1580 0 0 2560 0 2560 -1805 0 -1805 0 0 -602z"/>
<path d="M3240 3310 l0 -150 150 0 150 0 0 150 0 150 -150 0 -150 0 0 -150z"/>
</g>
</svg>
